1;uploader/main.cpp;114;CONFIG_NOT_READABLE;"Config file not readable"
3;uploader/main.cpp;142;NO_MODE;"Invalid mode, `-m=`."
4;uploader/main.cpp;109;ALREADY_RUNNING;"Process is already running."
10;uploader/main.cpp;151;SETTINGS_NOT_EXIST;"Config file does not exist."
11;uploader/main.cpp;154;SETTINGS_NO_MODE;"No mode provided, check `-m=...`."
12;uploader/main.cpp;157;SETTINGS_PAYLOAD_NOT_EXIST;"Payload file `post-data` not found."
13;uploader/main.cpp;160;SETTINGS_PAYLOAD_NOT_READABLE;"Payload file `post-data` is not readable."
14;uploader/main.cpp;163;SETTINGS_PARSE_ERROR;"Failed to parse config file."
15;uploader/main.cpp;166;SETTINGS_INVALID_MODE;("Mode '%1' is not configured.").arg(programArguments.mode)
16;uploader/main.cpp;169;SETTINGS_INVALID_CONFIGURATION;"Configuration error."
17;uploader/main.cpp;188;FAILED_PRECOMMAND;("pre-command process finished with invalid exit code: %1").arg(res)
20;uploader/main.cpp;196;FILE_PARAM_MISSING;"No file specified"
21;uploader/main.cpp;199;FILE_NOT_EXISTS;"File '"+programArguments.command_line_args.at(0)+"' does not exist"
22;uploader/main.cpp;202;FILE_NOT_READABLE;"File '"+programArguments.command_line_args.at(0)+"' is not readable"
23;uploader/main.cpp;208;FILE_TOO_SMALL;"File '"+programArguments.command_line_args.at(0)+"' is too small: " + number(s) + "bytes."
24;uploader/main.cpp;214;FILE_TOO_LARGE;"File '"+programArguments.command_line_args.at(0)+"' is too large: " + number(s) + "bytes."
30;uploader/uploader.cpp;126;NETWORK_FILE_READ;"Could not read upload file."
30;uploader/uploader.cpp;132;NETWORK_FILE_READ;"Upload interruped or otherwise failed."
31;uploader/uploader.cpp;129;NETWORK_STATUS_NOT_200;"HTTP Response Status not 200."
31;uploader/uploader.cpp;262;NETWORK_STATUS_NOT_200;"http status code: " + number(res.statusCode)
33;uploader/uploader.cpp;135;NETWORK_FAILED_TO_CONNECT;"Failed to connect to Server."
33;uploader/uploader.cpp;138;NETWORK_FAILED_TO_CONNECT;"Failed to connect to Server, reason: " + message
34;uploader/uploader.cpp;141;NETWORK_UNKNOWN;"General Network Error: " + number(errorCode)
34;uploader/uploader.cpp;257;NETWORK_UNKNOWN;"Http Communication error: " + res.errorMessage
35;uploader/uploader.cpp;276;NETWORK_WRONG_CONTENTTYPE;"Response contains no JSON: " + res.contentType
40;uploader/uploader.cpp;283;RESPONSE_PARSE_JSON;"Failed to parse response json, reason: " + varres.errorMessage
41;uploader/uploader.cpp;290;RESPONSE_VARIABLE_SUBSTITUTE;"failed to replace variables, reason: " + cmdres.errorMessage
50;uploader/main.cpp;134;URLPARSE_NO_MODE;"Missing mdoe in url: " + (argv[1])
51;uploader/main.cpp;131;URLPARSE_NO_FILE;"Missing file attribute in url: " + (argv[1])
52;uploader/main.cpp;128;URLPARSE_MALFORMED_URL;"Failed to parse url: " + (argv[1])
128;uploader/main.cpp;177;EXECUTE_CMD_EMPTY;("Empty pre-command: %1").arg(res)
129;uploader/main.cpp;180;EXECUTE_QUTE_ERROR;("Unbalanced Quotes in pre-command: %1").arg(res)
129;uploader/uploader.cpp;316;EXECUTE_QUTE_ERROR;"Failed to processs command."
130;uploader/main.cpp;183;EXECUTE_PROCESS_FAILED_TO_START;("Failed to launch pre-command: %1").arg(res)
131;uploader/main.cpp;186;EXECUTE_PROCESS_FINISHED_UNECPECTED;("pre-command process finished unexpected: %1").arg(res)
132;uploader/uploader.cpp;328;EXECUTE_COMMAND_FAILED_TO_START;"failed to execute command."
